%YAML 1.1
%TAG !u! tag:unity3d.com,2011:
--- !u!21 &2100000
Material:
  serializedVersion: 6
  m_ObjectHideFlags: 0
  m_CorrespondingSourceObject: {fileID: 0}
  m_PrefabInstance: {fileID: 0}
  m_PrefabAsset: {fileID: 0}
  m_Name: Mat_Versatile_Impulse
  m_Shader: {fileID: -6465566751694194690, guid: 86cea2d7b957339419fc73850a606df8, type: 3}
  m_ShaderKeywords: 
  m_LightmapFlags: 4
  m_EnableInstancingVariants: 0
  m_DoubleSidedGI: 0
  m_CustomRenderQueue: -1
  stringTagMap: {}
  disabledShaderPasses: []
  m_SavedProperties:
    serializedVersion: 3
    m_TexEnvs:
    - Texture2D_fa4c022d3a1f4c538094a49ad6e939db:
        m_Texture: {fileID: 2800000, guid: 1bd500d1e068d0649a3d1aa06813585f, type: 3}
        m_Scale: {x: 1, y: 1}
        m_Offset: {x: 0, y: 0}
    - unity_Lightmaps:
        m_Texture: {fileID: 0}
        m_Scale: {x: 1, y: 1}
        m_Offset: {x: 0, y: 0}
    - unity_LightmapsInd:
        m_Texture: {fileID: 0}
        m_Scale: {x: 1, y: 1}
        m_Offset: {x: 0, y: 0}
    - unity_ShadowMasks:
        m_Texture: {fileID: 0}
        m_Scale: {x: 1, y: 1}
        m_Offset: {x: 0, y: 0}
    m_Floats:
    - Vector1_008e3854b15046708bc53f5a9a570a7b: 0
    - Vector1_15c7c2a54a1441f1b415ea5b90c31aba: 2
    - Vector1_77bc14538fa44405b35e97f569c9fa9a: 0.5
    - Vector1_7d01adc369b54ce5a31d14de5ccc982e: 0.956
    - Vector1_93859ad0ac5d422195996a721bc9abcc: 0.8
    - Vector1_b17e812f3a874906a9b9faa1b3165e3e: 270
    - Vector1_b86d0886873444ba9419c1510baf42c6: 1
    - Vector1_dc0726401451402eb719fc3df75f0735: 0.5
    m_Colors:
    - Color_d7d8ae40bb6f4b81b84cb358057c77d8: {r: 0.35849053, g: 0.35849053, b: 0.35849053, a: 1}
    - Color_da38b8757e4642d680b555a213899f11: {r: 0.8584634, g: 1, b: 0, a: 1}
    - Vector2_1ab12a3ea2b3411d9cccfa56f005208a: {r: 0.245, g: 0.5, b: 0, a: 0}
    - Vector2_375e1b20087a42319253bae84935fecd: {r: 0.5, g: 0, b: 0, a: 0}
    - Vector2_6b87bdf36c4c4c48bc48dca1d01d77d0: {r: 0.0625, g: 0.0625, b: 0, a: 0}
    - Vector2_a8f01d7fc6cc4071b6965a03919bd83d: {r: 0, g: -1, b: 0, a: 0}
  m_BuildTextureStacks: []
