{
    "name": "DefaultInputActionAsset",
    "maps": [
        {
            "name": "Gameplay",
            "id": "056457b6-fae3-4c42-9266-b415d88008ff",
            "actions": [
                {
                    "name": "Move",
                    "type": "Value",
                    "id": "4edc4924-4f72-43a6-babb-a7f5ef347fd3",
                    "expectedControlType": "Vector2",
                    "processors": "",
                    "interactions": ""
                },
                {
                    "name": "Camera",
                    "type": "Value",
                    "id": "1d007a97-7628-4219-a155-a5f17f4d3d91",
                    "expectedControlType": "Vector2",
                    "processors": "",
                    "interactions": ""
                },
                {
                    "name": "Jump",
                    "type": "Button",
                    "id": "b36486b4-5463-42eb-9412-92dce2753b41",
                    "expectedControlType": "Button",
                    "processors": "",
                    "interactions": ""
                },
                {
                    "name": "Sprint",
                    "type": "Button",
                    "id": "8a341dd7-eee3-4aab-85f4-11daec207ce6",
                    "expectedControlType": "Button",
                    "processors": "",
                    "interactions": ""
                },
                {
                    "name": "Crouch",
                    "type": "Button",
                    "id": "3e35344c-a519-4ab6-a05d-006287211a4d",
                    "expectedControlType": "Button",
                    "processors": "",
                    "interactions": ""
                },
                {
                    "name": "Shoot",
                    "type": "Button",
                    "id": "156ec844-13ef-40bf-9ea5-1c1651a8a930",
                    "expectedControlType": "Button",
                    "processors": "",
                    "interactions": ""
                },
                {
                    "name": "ImpulseTerrain",
                    "type": "Button",
                    "id": "0597016f-952c-4303-81f4-fe139cfb6d93",
                    "expectedControlType": "Button",
                    "processors": "",
                    "interactions": ""
                },
                {
                    "name": "SaveSS",
                    "type": "Button",
                    "id": "aa3a25b7-f85f-45fc-922b-2a3b6a4fb2e2",
                    "expectedControlType": "Button",
                    "processors": "",
                    "interactions": ""
                },
                {
                    "name": "LoadSS",
                    "type": "Button",
                    "id": "d6f0e625-cc8b-4e7a-a0d4-691ed91cf033",
                    "expectedControlType": "Button",
                    "processors": "",
                    "interactions": ""
                },
                {
                    "name": "SavePS",
                    "type": "Button",
                    "id": "3c8a87b4-2dcf-4f59-b7b3-9cc5a9a7affb",
                    "expectedControlType": "Button",
                    "processors": "",
                    "interactions": ""
                },
                {
                    "name": "LoadPS",
                    "type": "Button",
                    "id": "a805abc3-b53c-4e2a-89fb-7e83ef74ce61",
                    "expectedControlType": "Button",
                    "processors": "",
                    "interactions": ""
                },
                {
                    "name": "Exit",
                    "type": "Button",
                    "id": "0c4345f1-25ef-4cbd-a647-844e2105277f",
                    "expectedControlType": "Button",
                    "processors": "",
                    "interactions": ""
                }
            ],
            "bindings": [
                {
                    "name": "",
                    "id": "f67921cf-0009-4044-9c69-62eab1e320cb",
                    "path": "<Keyboard>/space",
                    "interactions": "",
                    "processors": "",
                    "groups": "Mouse and Keyboard",
                    "action": "Jump",
                    "isComposite": false,
                    "isPartOfComposite": false
                },
                {
                    "name": "",
                    "id": "4bd31790-4788-4913-8c0a-b1cb58122dcb",
                    "path": "<Gamepad>/buttonSouth",
                    "interactions": "",
                    "processors": "",
                    "groups": "Gamepad",
                    "action": "Jump",
                    "isComposite": false,
                    "isPartOfComposite": false
                },
                {
                    "name": "",
                    "id": "286bda98-3724-4263-aaa9-8411aef1c287",
                    "path": "<Keyboard>/ctrl",
                    "interactions": "",
                    "processors": "",
                    "groups": "Mouse and Keyboard",
                    "action": "Crouch",
                    "isComposite": false,
                    "isPartOfComposite": false
                },
                {
                    "name": "",
                    "id": "eb32fa87-c1e5-4d86-88c6-245b135a324b",
                    "path": "<Gamepad>/rightStickPress",
                    "interactions": "",
                    "processors": "",
                    "groups": "Gamepad",
                    "action": "Crouch",
                    "isComposite": false,
                    "isPartOfComposite": false
                },
                {
                    "name": "WASD",
                    "id": "63fbc9ea-837a-4ab9-b6fa-48df5ff96a22",
                    "path": "2DVector",
                    "interactions": "",
                    "processors": "",
                    "groups": "",
                    "action": "Move",
                    "isComposite": true,
                    "isPartOfComposite": false
                },
                {
                    "name": "up",
                    "id": "b7a1a9b2-e08f-4025-b3fa-5db297fc4e9c",
                    "path": "<Keyboard>/w",
                    "interactions": "",
                    "processors": "",
                    "groups": "Mouse and Keyboard",
                    "action": "Move",
                    "isComposite": false,
                    "isPartOfComposite": true
                },
                {
                    "name": "down",
                    "id": "d88f3652-cb73-4533-b885-166339452062",
                    "path": "<Keyboard>/s",
                    "interactions": "",
                    "processors": "",
                    "groups": "Mouse and Keyboard",
                    "action": "Move",
                    "isComposite": false,
                    "isPartOfComposite": true
                },
                {
                    "name": "left",
                    "id": "f4c602a8-3ec6-4e76-9d58-56014a2e3ddf",
                    "path": "<Keyboard>/a",
                    "interactions": "",
                    "processors": "",
                    "groups": "Mouse and Keyboard",
                    "action": "Move",
                    "isComposite": false,
                    "isPartOfComposite": true
                },
                {
                    "name": "right",
                    "id": "80fc2595-ccd8-4e20-9eec-1a208279f887",
                    "path": "<Keyboard>/d",
                    "interactions": "",
                    "processors": "",
                    "groups": "Mouse and Keyboard",
                    "action": "Move",
                    "isComposite": false,
                    "isPartOfComposite": true
                },
                {
                    "name": "Arrow Keys",
                    "id": "76af4d4d-57a2-4385-852e-c6560faeef3d",
                    "path": "2DVector",
                    "interactions": "",
                    "processors": "",
                    "groups": "",
                    "action": "Move",
                    "isComposite": true,
                    "isPartOfComposite": false
                },
                {
                    "name": "up",
                    "id": "3f5fa406-71b6-469f-a5b0-f5f9e01bf87e",
                    "path": "<Keyboard>/upArrow",
                    "interactions": "",
                    "processors": "",
                    "groups": "Mouse and Keyboard",
                    "action": "Move",
                    "isComposite": false,
                    "isPartOfComposite": true
                },
                {
                    "name": "down",
                    "id": "aaf3fade-a473-44c2-8e54-7204a2040b69",
                    "path": "<Keyboard>/downArrow",
                    "interactions": "",
                    "processors": "",
                    "groups": "Mouse and Keyboard",
                    "action": "Move",
                    "isComposite": false,
                    "isPartOfComposite": true
                },
                {
                    "name": "left",
                    "id": "7c5e1d46-69c3-4cf0-827f-736e7929ee16",
                    "path": "<Keyboard>/leftArrow",
                    "interactions": "",
                    "processors": "",
                    "groups": "Mouse and Keyboard",
                    "action": "Move",
                    "isComposite": false,
                    "isPartOfComposite": true
                },
                {
                    "name": "right",
                    "id": "8544fa77-ea5c-440e-b0f8-a9b7522f9914",
                    "path": "<Keyboard>/rightArrow",
                    "interactions": "",
                    "processors": "",
                    "groups": "Mouse and Keyboard",
                    "action": "Move",
                    "isComposite": false,
                    "isPartOfComposite": true
                },
                {
                    "name": "",
                    "id": "1a96039e-4b5d-4556-810e-7e2d5a61af34",
                    "path": "<Gamepad>/leftStick",
                    "interactions": "",
                    "processors": "",
                    "groups": "Gamepad",
                    "action": "Move",
                    "isComposite": false,
                    "isPartOfComposite": false
                },
                {
                    "name": "",
                    "id": "f41c243d-420d-42e4-856b-5e26abe913a3",
                    "path": "<Gamepad>/dpad",
                    "interactions": "",
                    "processors": "",
                    "groups": "Gamepad",
                    "action": "Move",
                    "isComposite": false,
                    "isPartOfComposite": false
                },
                {
                    "name": "",
                    "id": "a7ba1e9f-5391-4f34-8258-679af14ef5f5",
                    "path": "<Gamepad>/rightTrigger",
                    "interactions": "Press",
                    "processors": "",
                    "groups": "Gamepad",
                    "action": "Shoot",
                    "isComposite": false,
                    "isPartOfComposite": false
                },
                {
                    "name": "",
                    "id": "06ce20a9-0639-4c82-a745-744b67bd3f67",
                    "path": "<Mouse>/leftButton",
                    "interactions": "",
                    "processors": "",
                    "groups": "Mouse and Keyboard",
                    "action": "Shoot",
                    "isComposite": false,
                    "isPartOfComposite": false
                },
                {
                    "name": "",
                    "id": "7d7048e1-ac46-48ce-bfa1-f4076e3a097a",
                    "path": "<Mouse>/rightButton",
                    "interactions": "",
                    "processors": "",
                    "groups": "Mouse and Keyboard",
                    "action": "ImpulseTerrain",
                    "isComposite": false,
                    "isPartOfComposite": false
                },
                {
                    "name": "",
                    "id": "26d39938-9ae5-4e84-b0fa-df54df64f838",
                    "path": "<Gamepad>/leftTrigger",
                    "interactions": "",
                    "processors": "",
                    "groups": "Gamepad",
                    "action": "ImpulseTerrain",
                    "isComposite": false,
                    "isPartOfComposite": false
                },
                {
                    "name": "",
                    "id": "e9cfc59e-f423-48e5-9275-34742419d056",
                    "path": "<Keyboard>/r",
                    "interactions": "",
                    "processors": "",
                    "groups": "Mouse and Keyboard",
                    "action": "LoadSS",
                    "isComposite": false,
                    "isPartOfComposite": false
                },
                {
                    "name": "",
                    "id": "735981bc-2bcb-4f61-9237-24e7888c252d",
                    "path": "<Gamepad>/buttonWest",
                    "interactions": "",
                    "processors": "",
                    "groups": "Gamepad",
                    "action": "LoadSS",
                    "isComposite": false,
                    "isPartOfComposite": false
                },
                {
                    "name": "",
                    "id": "eaaf0a34-127c-432e-9c50-f6ee631b2f8b",
                    "path": "<Keyboard>/e",
                    "interactions": "",
                    "processors": "",
                    "groups": "Mouse and Keyboard",
                    "action": "SaveSS",
                    "isComposite": false,
                    "isPartOfComposite": false
                },
                {
                    "name": "",
                    "id": "b2f3cbbf-1bb0-4ebb-b5b6-f844fa7366f6",
                    "path": "<Gamepad>/leftShoulder",
                    "interactions": "",
                    "processors": "",
                    "groups": "Gamepad",
                    "action": "SaveSS",
                    "isComposite": false,
                    "isPartOfComposite": false
                },
                {
                    "name": "",
                    "id": "5b99559b-6535-4aef-a869-b8840e1cb6c9",
                    "path": "<Mouse>/delta",
                    "interactions": "",
                    "processors": "",
                    "groups": "Mouse and Keyboard",
                    "action": "Camera",
                    "isComposite": false,
                    "isPartOfComposite": false
                },
                {
                    "name": "",
                    "id": "ed27d8a6-b734-4545-a10b-65833a1685cd",
                    "path": "<Gamepad>/rightStick",
                    "interactions": "",
                    "processors": "ScaleVector2(x=15,y=15)",
                    "groups": "Gamepad",
                    "action": "Camera",
                    "isComposite": false,
                    "isPartOfComposite": false
                },
                {
                    "name": "",
                    "id": "be357783-4d5a-4685-9c02-35c66f3d6b2a",
                    "path": "<Gamepad>/leftStickPress",
                    "interactions": "",
                    "processors": "",
                    "groups": "Gamepad",
                    "action": "Sprint",
                    "isComposite": false,
                    "isPartOfComposite": false
                },
                {
                    "name": "",
                    "id": "464f1139-72d3-46ea-bbcc-5c52ece60f07",
                    "path": "<Keyboard>/shift",
                    "interactions": "",
                    "processors": "",
                    "groups": "Mouse and Keyboard",
                    "action": "Sprint",
                    "isComposite": false,
                    "isPartOfComposite": false
                },
                {
                    "name": "",
                    "id": "08316e66-63a3-44d6-a97c-6d34fc16e3cf",
                    "path": "<Gamepad>/rightShoulder",
                    "interactions": "",
                    "processors": "",
                    "groups": "Gamepad",
                    "action": "SavePS",
                    "isComposite": false,
                    "isPartOfComposite": false
                },
                {
                    "name": "",
                    "id": "e24c735c-b7f1-48fc-906e-ee593a6e5e6b",
                    "path": "<Keyboard>/f",
                    "interactions": "",
                    "processors": "",
                    "groups": "Mouse and Keyboard",
                    "action": "SavePS",
                    "isComposite": false,
                    "isPartOfComposite": false
                },
                {
                    "name": "",
                    "id": "34e29e2a-a7a3-49b9-8ab0-bdd5cf9cb2a9",
                    "path": "<Gamepad>/buttonEast",
                    "interactions": "",
                    "processors": "",
                    "groups": "Gamepad",
                    "action": "LoadPS",
                    "isComposite": false,
                    "isPartOfComposite": false
                },
                {
                    "name": "",
                    "id": "e777091a-df5a-4b27-bf7a-deeb50a96a3e",
                    "path": "<Keyboard>/g",
                    "interactions": "",
                    "processors": "",
                    "groups": "Mouse and Keyboard",
                    "action": "LoadPS",
                    "isComposite": false,
                    "isPartOfComposite": false
                },
                {
                    "name": "",
                    "id": "480cab5a-b0bd-46cd-a68d-eecbf99aa868",
                    "path": "<Keyboard>/p",
                    "interactions": "",
                    "processors": "",
                    "groups": "Mouse and Keyboard",
                    "action": "Exit",
                    "isComposite": false,
                    "isPartOfComposite": false
                },
                {
                    "name": "",
                    "id": "0539e249-a98b-408c-8010-ebe062ff5d8c",
                    "path": "<Gamepad>/start",
                    "interactions": "",
                    "processors": "",
                    "groups": "Gamepad",
                    "action": "Exit",
                    "isComposite": false,
                    "isPartOfComposite": false
                }
            ]
        }
    ],
    "controlSchemes": [
        {
            "name": "Mouse and Keyboard",
            "bindingGroup": "Mouse and Keyboard",
            "devices": [
                {
                    "devicePath": "<Mouse>",
                    "isOptional": false,
                    "isOR": false
                },
                {
                    "devicePath": "<Keyboard>",
                    "isOptional": false,
                    "isOR": false
                }
            ]
        },
        {
            "name": "Gamepad",
            "bindingGroup": "Gamepad",
            "devices": [
                {
                    "devicePath": "<Gamepad>",
                    "isOptional": false,
                    "isOR": false
                }
            ]
        }
    ]
}