%YAML 1.1
%TAG !u! tag:unity3d.com,2011:
--- !u!114 &11400000
MonoBehaviour:
  m_ObjectHideFlags: 0
  m_CorrespondingSourceObject: {fileID: 0}
  m_PrefabInstance: {fileID: 0}
  m_PrefabAsset: {fileID: 0}
  m_GameObject: {fileID: 0}
  m_Enabled: 1
  m_EditorHideFlags: 0
  m_Script: {fileID: 11500000, guid: 3f1ca63a91b17724bbd99c8fa67e0180, type: 3}
  m_Name: Default Material Palette
  m_EditorClassIdentifier: 
  array:
  - {fileID: 2100000, guid: f6f6155d76ec10645a4e80b51a5b8681, type: 2}
  - {fileID: 2100000, guid: 7a5fc4aab23d6b24f9bc4b13c7f44b81, type: 2}
  - {fileID: 2100000, guid: 3ddaf2b59ad9bde41b1403708f00cdd8, type: 2}
  - {fileID: 2100000, guid: 501d733a4a9d2c542a0dbb5e3710c367, type: 2}
  - {fileID: 2100000, guid: 6d4976ff3e828d349b6e4161d13993c6, type: 2}
  - {fileID: 2100000, guid: 5bf3d767b446d404da46024e1f129bc8, type: 2}
  - {fileID: 2100000, guid: 0a6ca2025e29f55499f004690de738ad, type: 2}
  - {fileID: 0}
  - {fileID: 0}
  - {fileID: 2100000, guid: 31321ba15b8f8eb4c954353edc038b1d, type: 2}
